…
pairs %>% 
  group_by(subjectID) %>% 
  summarise(size = n()) %>% 
  arrange(desc(size)) %>%
  ungroup()
	# A tibble: 161 x 2
	   subjectID  size
	       <int> <int>
	 1       697     9
	 2       119     4
	 3       216     4
	 4       329     4
	 5       726     4
	 6       878     4
	 7       985     4
	 8       262     3
	 9       485     3
	10       623     3
	# ... with 151 more rows
…
